Reason,Count
Vehicle and Safety Equipment,0.08506454527365624
Lighting and Electrical,0.16424502289920614
Steering and Suspension,0.12573021351970023
Braking Equipment,0.07660045023679513
Wheels and Tyres,0.11368506945005677
"Engine, Noise and Exhaust",0.04894471919280647
Chassis and Body,0.04449195643437874
Side Slip Test,0.09363398167506146
Suspension Test,0.04401262535761721
Light test,0.05695066289815831
Brake Test,0.09772891821106953
Emmissions,0.04462293643791241
OTHER,0.003691406652780928
Incompletable,0.0005974917608004161
